[
	{
		"name": "newaccount",
		"params": {
			"accountname": "testaccount"
		},
		"returns": {
			"method": "newaccount",
			"result": true,
			"publickey": "hidhasjdksahdk",
			"name": "accountname"
		}
	},
	{
		"name": "listaccounts",
		"returns": {
			"method": "listaccounts",
			"result": true,
			"accounts": "response"
		}
	},
	{
		"name": "getaccountinfo",
		"params": {
			"accountname": "testaccount"
		},
		"returns": {
			"method": "getaccountinfo",
			"result": true,
			"name": "accountname",
			"publickey": "siodjaosdjosiajd",
			"messages" : 1
		}
	},
	{
		"name": "listmessages",
		"params": {
			"accountname": "testaccount"
		},
		"returns": {
			"method": "listmessages",
			"result": true,
			"account": "accountname",
			"publickey": "jsiudhfiushduifhdi",
			"messages": "a response"
		}
	},
	{
		"name": "sendmessage",
		"params": {
			"accountname": "testaccount",
			"recipient": "sdjfosdofjoisdfjsf",
			"messagestring": "a message"
		},
		"returns": {
			"method": "sendmessage",
			"result": true,
			"account": "accountname",
			"publickey": "jaoioisfdjosajdo",
			"recipient": "ioejdoijeojdoiwqej",
			"message": "messagejdjd"
		}
	},
	{
		"name": "getinfo",
		"returns": {
			"method": "getinfo",
			"result": true,
			"version": "0.0.1-alpha",
			"connections": 8,
			"accounts": 2,
			"messages": 5
		}
	}
]